N24-...       
OP20 Pim-1 çakma kN	...       	...       
OP20 Pim-2 çakma kN	...       	...       
OP20 Tapa çakma kN	...       	...       
OP30 Rulman çakma kN	...       	...       
OP30 Rulman çakma sonu mm	...       	...       
OP30 Kömür çakma kN	...       	...       
OP30 Kömür çakma max. kN	...       	...       
OP30 Kömür çakma sonu mm	...       	...       
OP35 Kömür yükseklik mm	...       	...       
OP40 Kasnak iç çap mm	11.938    	OK        
OP40 Kasnak iç çap ovalite mm	0.002     	OK        
OP40 Kasnak çakma kN	7.69      	OK        
OP40 Pervane iç çap mm	11.967    	OK        
OP40 Pervane iç çap ovalite mm	0.002     	OK        
OP40 Pervane çakma kN	4.73      	OK        
OP50 Boşta dönme kontrolü	...       	OK        
OP50 Kasnak yükseklik mm	29.062    	OK        
OP50 Kasnak dış çap ovalite mm	0.035     	OK        
OP50 Pervane yükseklik mm	17.203    	OK        
OP50 Pervane dış çap ovalite mm	0.088     	OK        
OP60 Sıkılık torku Nm	19.8      	OK        
OP70 Sızdırmazlık Pa	3         	OK        
OP80 Conta kulak ve kirlilik kamera kontrolü	...       	OK        

